address,ethers,cost,count_op,count_out_addresses,count_in_addresses,score
0x742d35cc6634c0532925a3b844bc454e4438f44e,-50.000,13.203.500,1,1,0,6.353.500
0x97c77fbf8990fa2442f1e97001ce91ac7333bf80,"-31.599,86101","8.002.980,79921",2,1,0,"3.673.799,84094"
0x267be1c1d684f78cb4f6a176c4911b741e4ffdc0,"-21.931,07332","5.679.116,22489",390,311,0,"2.674.559,17972"
0x15abb66ba754f05cbc0165a64a11cded1543de48,-21.000,5.315.625,1,1,0,2.438.625
0x7be98e1d8f29d23338e61694007d50d67144c7ef,"-15.998,10196","4.181.422,29937",10,1,1,"1.989.682,33045"
0xdcf42a28b6d7e3377355b1e91a9b91708b83e2d5,-15.200,4.017.415,5,4,0,1.935.015
0xa7efae728d2936e78bda97dc267687568dd593f3,"-13.941,97198","3.694.250,27833",1545,475,836,"1.784.200,11676"
0x267f70f9b856de226fea5fc1b0a8e319c72ceff5,-15.000,3.832.050,6,6,0,1.777.050
0xca3ac4f946b997db24515a7ae7779f2e587d5a26,"-15.307,1208","3.860.572,94666",3,3,0,"1.763.497,39706"
0x3f5ce5fbfe3e9af3971dd833d26ba9b5c936f0be,"-15.962,6038","3.950.137,83064",4382,773,3046,"1.763.261,11041"
0xdf552a7eadf42b5be39e71bfc662f1c39440e548,-9.700,"2.562.109,5",1,1,0,"1.233.209,5"
0x28c9386ebab8d52ead4a327e6423316435b2d4fc,"-9.463,82036","2.494.414,81368",6,1,4,"1.197.871,42371"
0x7534016ca9441b1628369a65fc40ff39fbf3b458,"-6.703,64179","1.774.252,87207",1,1,0,"855.853,94709"
0xfbb1b73c4f0bda4f67dca266ce6ef42f520fbb98,"-6.694,81534","1.756.656,06549",439,393,0,"839.466,36444"
0x80da95b94df896b5c90c4ee27699d1422c0d1715,"-6.999,99389","1.787.518,27767",3,1,1,"828.519,11498"
0xda7110b1baa1691a3141bc884bb1fcc944aa07f9,"-6.571,98916","1.681.768,61719",4,4,0,"781.406,10227"
0xf98e7af638b015d15e1820852bf24900f074b38b,"-5.956,76498","1.554.091,44639",198,179,0,"738.014,64435"
0x0681d8db095565fe8a346fa0277bffde9c0edbbf,"-6.164,24887","1.520.161,66942",893,786,1,"675.659,57451"
0x39542c3c68961bafad85cb924782df4b22626c5c,"-4.624,77869","1.163.455,57547",2,1,0,"529.860,89471"
0xf53090398cb7b9acc1a1b2ea7e5e382ca0f7ab00,-4.011,"1.059.425,43",2,1,0,"509.918,43"
0x2819c144d5946404c0516b6f817a960db37d4929,"-4.057,27643","1.029.924,46613",884,282,456,"474.077,59566"
0x443a8ce02eb66bedccf6c8c15401803a3e520bf6,"-4.104,18522","1.032.830,48275",67,25,1,"470.557,10819"
0xa910f92acdaf488fa6ef02174fb86208ad7722ba,"-3.828,66557","985.776,52144",426,168,146,"461.249,33879"
0x6302d45e61bdfcb35e7792044eab7f9790a0c74a,"-3.871,83826","990.160,91172",55,48,0,"459.719,06956"
0x2b5634c42055806a59e9107ed44d43c426e58258,"-3.568,1015","919.104,21436",460,414,0,"430.274,30875"
0x58f56615180a8eea4c462235d9e215f72484b4a3,"-3.512,50621","897.716,37999",45,38,0,"416.503,02868"
0xdecbe38d925834a6e56bf7accdc8672f666c4726,"-3.310,21128","844.392,05838",2,2,0,"390.893,11355"
0xa102a06fa1abd8105a6e9965281539099adc7d7c,"-3.049,01428","805.220,18003",6,6,0,"387.505,22429"
0x44ad6b66b5a0aac588dff65726b3bfb0de49df10,-3.000,798.090,1,1,0,387.090
0x0bc6c89c6ee9590419df083dfd4d6074732b77fc,-3.000,798.090,1,1,0,387.090
0xd1e50a2f301359ea6cefd82cafea92bd1a023f08,"-3.250,09979","820.113,93051",1,1,0,"374.850,25928"
0x5eb82e3829ca34cb372bba873aef7f7edf00642a,"-2.899,13265","769.603,75424",1,1,0,"372.422,58069"
0x61c808d82a3ac53231750dadc13c777b59310bd9,-3.000,768.255,1,1,0,357.255
0x3ef9d7a4f2579bb1e9ed9fb5239a46c482c6a9a0,"-2.999,999","768.224,74392",1,1,0,"357.224,88093"
0x28fb2f5864256252cddd330c4a2d128b1ad7d9ff,-2.880,"737.338,2",2,1,1,"342.778,2"
0xe0fc1f42320dcf40a837346e921596bc44d5a749,"-2.600,04129","688.826,5776",10,10,0,"332.620,92135"
0x0f9216a3ed7c9856bc7f3f6fd815734fdc40a602,"-2.957,97696","736.994,74845",1,1,0,"331.751,90549"
0xd7b9a9b2f665849c4071ad5af77d8c76aa30fb32,"-2.484,70041","662.473,40631",1242,1,1241,"322.069,44967"
0x1b467a27f79b3468e28be40117328eefc7e54d1e,"-2.502,99949","664.258,51836",1,1,0,"321.347,5889"
0x5a0b54d5dc17e0aadc383d2db43b0a0d3e029c4c,"-2.632,92394","680.600,9437",29,1,0,"319.890,36394"
0x3584ca77ba08bd8b3fe4762e60eb284e37696829,-2.585,"662.436,83",9,2,0,"308.291,83"
0xaa65cc699f9b0258064d952ad987269f7c9dbfad,"-2.580,2282","660.916,09177",22,1,13,"307.424,82792"
0x028e2f51645c5e194fd39ad465744d97943a027b,"-2.559,99646","648.542,70538",4,1,1,"297.823,19036"
0xcabda7c04a240498636ee0e535e0596b504c66d2,"-2.398,91059","626.444,91582",56,54,0,"297.794,16567"
0x5293551532ceadde07c58651be8b06df7521b91f,"-2.222,605","584.942,7593",4,2,1,"280.445,8743"
0x22540cf5fa0101375513106f14940619cbc0f35c,"-2.175,16209","571.159,54477",56,52,0,"273.162,33833"
0x586e32930ac05127de429bd566eaa2758fcbd9bc,-2.100,"556.426,5",3,1,0,"268.726,5"
0x8fd00f170fdf3772c5ebdcd90bf257316c69ba45,"-1.937,50281","528.540,54153",2989,2954,1,"263.102,65588"
0x3788539703c1e469fe0eb408095e97b0c247042a,"-1.999,77808","529.811,70417",6,1,3,"255.842,1077"
0x8fb53dcfc3e0e3993aea3f632c6654ddcf2b1a0a,-2.000,511.500,1,1,0,237.500
0xce235362e7d11de16696fed6adad9137f9ad8ada,"-1.996,881","508.876,4",252,2,1,"235.303,703"
0x134e5788aba7de10ba531500794d4703d9b4386a,"-1.999,99979","504.669,94701",1,1,0,"230.669,97578"
0xf115de96f669f3df5287617d70c890085c1090e6,-1.600,427.448,1,1,0,208.248
0x52bc44d5378309ee2abf1539bf71de1b7d7be3b5,"-1.712,72314","440.068,24332",3975,3467,1,"205.425,17348"
0xea674fdde714fd979de3edf0f56aa9716b898ec8,"-1.623,07569","420.515,4678",8261,8261,0,"198.154,0984"
0xbdc21fae769d7f5469993d8e83b465495d88cfc0,-1.572,"410.604,72",2,2,0,"195.240,72"
0xedbb72e6b3cf66a792bff7faac5ea769fe810517,-1.500,"389.387,5",2,1,0,"183.887,5"
0x95b697e13f227d55ef4336f7aa762fe243eef590,-1.500,"379.282,5",1,1,0,"173.782,5"
0x829bd824b016326a401d083b33d092293333a830,"-1.461,27737","373.014,49136",2716,2716,0,"172.819,49143"
0x61189da79177950a7272c88c6058b96d4bcd6be2,"-1.330,2163","347.337,45017",92,44,35,"165.097,81648"
0xc15423ca82eecd1b182049cc08201bc54e60a7cb,"-1.399,31513","356.398,59054",2,1,0,"164.692,41773"
0xe09057199b10291f9ed9c10cac208ff1c4e306f4,"-1.365,08983","344.459,94152",1,1,0,"157.442,63521"
0xe4a43138647a96b31294e84eda0e429c4219cc65,"-1.352,43682","341.172,47328",1,1,0,"155.888,62955"
0x3c5ca37e213397e2ec7fab35fe0fdf1c14409325,"-1.304,30639","334.527,78291",2,1,0,"155.837,80748"
0x2a7bb6a277ed36c6d141316657b3eaf145ee53c0,"-1.169,64491","308.557,56102",79,2,68,"148.316,20774"
0xbc3b07bdff4ea8539e81eee7bda4ca852bdaa7d3,"-1.048,00021","288.767,99564",3,1,1,"145.191,96687"
0x28cb9b9a6209ab759f99ec7e20f44446bce15aae,"-1.216,53313","310.027,3845",1,1,0,"143.362,34623"
0xf0314547dc564aecb8577ef4ffd6a1a189fae5cf,"-1.187,72495","304.746,46831",1,1,0,"142.028,14982"
0x0b3a5f0f18bce9b094e91c3e916a27a960fa4b74,-1.200,303.204,1,1,0,138.804
0x95f1eaf5fae6651efdb74d74abcda87a5d104d62,-1.120,291.921,2,1,0,138.481
0xdc2eba0fe61ba0c32641c119eaaf608367506254,"-1.254,28058","308.814,88397",156,56,91,"136.978,44472"
0x5c080f90acd20f31a862369184eaeb6e66f5f7e0,"-1.143,84279","288.631,57041",1,1,0,"131.925,10818"
0xfde0e8207f0d29a659f318ffc0fa3e3eb1b4341a,"-1.136,02525","287.510,31896",10,1,8,"131.874,85905"
0xdcc032b8f6145a976956c3205c5334790193cbbe,"-1.139,72979","287.593,71656",1,1,0,"131.450,73533"
0xfe740a6f0b01ab1ad902ea8db8c5f4f11a05aad2,"-1.138,24679","287.219,50375",1,1,0,"131.279,69352"
0x3224ed1d1030c68330fe2b0a6e4849cb8ce20929,"-1.131,66979","285.559,89646",1,1,0,"130.521,13523"
0x8d182c7f5feaef6d90e0cd13324f5c827df259ca,-1.045,"272.925,875",2,2,0,"129.760,875"
0x0ff24158220a14398f047a80a513617ddc4f5289,-1.000,265.750,1,1,0,128.750
0x047c4195f4b370fdd76dd3d6eb0972d159a3ef72,"-1.119,35544","281.775,03986",6,6,0,"128.423,34448"
0xff5b76bcfc194410a37617b747a8f5505e57225f,"-1.076,23191","274.030,16845",1,1,0,"126.586,39704"
0x32be343b94f860124dc4fee278fdcbd38c102d88,"-1.023,45432","265.341,68946",208,1,119,"125.128,44743"
0x5a1b068da150cc054eac01e9a853497eb561aeb4,"-955,72239","253.898,38562",5241,2,5239,"122.964,41769"
0xeabb17cf8d99f4e3797e91a3e411f7283a0798ac,"-1.052,12979","265.489,17056",1,1,0,"121.347,38933"
0x7fa8e326f9c9cb6d49570bb7d3f1a5049942a925,"-1.037,03979","261.681,43541",1,1,0,"119.606,98418"
0xb210c23d1c31aeb50a6edcf780a0cbf4ebcb5e5f,"-937,999","247.758,36586",1,1,0,"119.252,50287"
0x518dbf85755ab9ba5d4305c756d0a568ea7f203d,-1.000,255.785,1,1,0,118.785
0x23983ea2123d40eb5655dfff3f3c917c78f214f6,"-964,4769","250.386,52318",158,3,0,"118.253,18824"
0xdbfc4549b325b6f00013a3861b87aab6696fdbee,-1.000,255.090,1,1,0,118.090
0x1967b70cfa53e4c578853e9268fa0ab95e656e65,-1.000,254.200,2,2,0,117.200
0xca00ae45bda1fe8ab363bec596d0bdd10c42848d,"-1.009,58435","254.753,46687",1,1,0,"116.440,41097"
0x543c6c33dea04ebbca1b66bbd22be30ac5469b3a,"-1.007,97679","254.347,8233",1,1,0,"116.255,00307"
0x85c0d1110c57a329ccd6cc91e50fb4666f2287c3,"-1.014,0705","254.927,32676",4,3,1,"115.999,66826"
0x3bcf6cf2e47cf859cc9c93dfce067832196e3974,-1.000,252.855,1,1,0,115.855
0xb2628597aac64b136c2aae3a516ea79a44817d77,"-988,26918","250.550,46977",10,1,8,"115.157,59198"
0x1ce78a3390cf1b1e113298d47e7ad21702344c07,"-963,88979","243.223,13016",1,1,0,"111.170,22893"
0x91ae9ca2050dfc4a0479fd81b902d2a0447e9f42,"-905,58551","234.574,92218",19,17,2,"110.509,70708"
0xe1988df04fb61d78f5c481e801bb3273f9220a19,"-926,89662","237.391,93634",2,1,1,"110.407,09913"
0x079a892628ebf28d0ed8f00151cff225a093dc63,"-904,81462","234.356,14863",71,36,24,"110.396,54524"
0xbad6e1009ef26349d35925b98bd0e43860351fbd,"-961,9","241.812,041",1,1,0,"110.031,741"
0xf0cde920490059600cdc9ad40a7b9c5b2c02ddd7,"-952,53221","238.349,51261",3,3,0,"107.852,60001"
