transaction_hash,ts,address,value,fee
0xe181987fa474749b80e7c588892ae92115fd4a078dd111ef75aad9b5b0a85c37,2020-03-20 22:03:35 UTC,0x68835cc6b4533ddbe8badf2e4c21892a9d64464c,0.0,-1.05E-4
0x6852f2b883e106917249bbb186120caa8bed06432b145b52766bc5b67894365e,2020-03-20 22:03:35 UTC,0x7766f409f213266f95566c021e32d8910314c3f9,0.0,-3.17727199943263E-4
0xf2d89e13ab73d52b04c5b2086e6598071317056b3da3cdf39880a8b3f144d7c9,2020-03-20 22:03:35 UTC,0x52bc44d5378309ee2abf1539bf71de1b7d7be3b5,0.0,"0,2308"
0x69cccb6ce89cb699b2e7db9d31265c32eb027ff218313d657df9f8c9e5b2032f,2020-03-20 22:03:35 UTC,0xd90668e94ea31538408a5874db5ccc41cf4cc54b,0.0,-0.001003144
0xe7235ace7831a4a6e8b390906652fec8ea38f6aa4b24b7db2e5adafaf830ebda,2020-03-20 22:03:35 UTC,0x52bc44d5378309ee2abf1539bf71de1b7d7be3b5,0.0,5.2418E-4
0xa873e2c200561bb142bc6c2c6e7affacc308c7e54e23f49518b664e380e3e2cc,2020-03-20 22:03:35 UTC,0x52bc44d5378309ee2abf1539bf71de1b7d7be3b5,0.0,2.1E-4
0xc40405c0d25ecce68695971b3e6af7a3d469dd3abdc2f6c1bb478071049f8e37,2020-03-20 22:03:35 UTC,0x52bc44d5378309ee2abf1539bf71de1b7d7be3b5,0.0,0.002779512
0x7e3688a7da99ddd6007356c1ba1677889c3b77cfdefc795e113cae51f1c1ccd4,2020-03-20 22:03:35 UTC,0x52bc44d5378309ee2abf1539bf71de1b7d7be3b5,0.0,2.515285357182E-4
0x95d0e1a8f5a334a2062ceb2da696574bd27e7ad4ee49f54a0e189c1c014eb67d,2020-03-20 22:03:35 UTC,0x74e384603cf731aac0852dbd3b4b3127ce74a8c3,0.0,-2.08233E-4
0x8b8d08a21b3521ee9709f52e4801d8801e71747ac7341a9659cfc1a6a0808c9a,2020-03-20 22:03:35 UTC,0xabbabb17965310949842323f06eede92fd787d0d,0.0,-8.19441E-4
0x5d7d08dc4117693ca782581600be286055f0f30ccf1d583de5b7018e5ae4c9e4,2020-03-20 22:03:35 UTC,0x52bc44d5378309ee2abf1539bf71de1b7d7be3b5,0.0,4.2128E-4
0x6852f2b883e106917249bbb186120caa8bed06432b145b52766bc5b67894365e,2020-03-20 22:03:35 UTC,0x52bc44d5378309ee2abf1539bf71de1b7d7be3b5,0.0,3.17727199943263E-4
0x0ca72e7fce978f99c18ab3d7568e2737f0c10f2083252da00f8129c819805204,2020-03-20 22:03:35 UTC,0x52bc44d5378309ee2abf1539bf71de1b7d7be3b5,0.0,8.2396E-4
0xe181987fa474749b80e7c588892ae92115fd4a078dd111ef75aad9b5b0a85c37,2020-03-20 22:03:35 UTC,0x52bc44d5378309ee2abf1539bf71de1b7d7be3b5,0.0,1.05E-4
0x69cccb6ce89cb699b2e7db9d31265c32eb027ff218313d657df9f8c9e5b2032f,2020-03-20 22:03:35 UTC,0x52bc44d5378309ee2abf1539bf71de1b7d7be3b5,0.0,0.001003144
0xa792ee2d70e0aa54cf72ad432315a46482475475a348c10aac502ab29f5e2593,2020-03-20 22:03:35 UTC,0x52bc44d5378309ee2abf1539bf71de1b7d7be3b5,0.0,0.0232047904
0xa873e2c200561bb142bc6c2c6e7affacc308c7e54e23f49518b664e380e3e2cc,2020-03-20 22:03:35 UTC,0x2655438fb484c785af1711349514796189f9a40b,0.0,-2.1E-4
0xf2d89e13ab73d52b04c5b2086e6598071317056b3da3cdf39880a8b3f144d7c9,2020-03-20 22:03:35 UTC,0xea950d4971f7ed0451a6a65a1c7a504ad45a2818,0.0,"-0,2308"
0x95d0e1a8f5a334a2062ceb2da696574bd27e7ad4ee49f54a0e189c1c014eb67d,2020-03-20 22:03:35 UTC,0x52bc44d5378309ee2abf1539bf71de1b7d7be3b5,0.0,2.08233E-4
0xc40405c0d25ecce68695971b3e6af7a3d469dd3abdc2f6c1bb478071049f8e37,2020-03-20 22:03:35 UTC,0xf17698d106d1ceae963a8171efeb33d014e4d514,0.0,-0.002779512
0x8b8d08a21b3521ee9709f52e4801d8801e71747ac7341a9659cfc1a6a0808c9a,2020-03-20 22:03:35 UTC,0x52bc44d5378309ee2abf1539bf71de1b7d7be3b5,0.0,8.19441E-4
0x0824394c53331ccdb4e865e4f3a8068dad9189a89089970af22400a64ae66263,2020-03-20 22:03:35 UTC,0x5f86fe0e62d1f0226f535ebe5d98a5d3edc9a615,0.0,-2.1048E-4
0x0824394c53331ccdb4e865e4f3a8068dad9189a89089970af22400a64ae66263,2020-03-20 22:03:35 UTC,0x52bc44d5378309ee2abf1539bf71de1b7d7be3b5,0.0,2.1048E-4
0xe7235ace7831a4a6e8b390906652fec8ea38f6aa4b24b7db2e5adafaf830ebda,2020-03-20 22:03:35 UTC,0x777c8044e676c2ada2ace643519cfc2c33a3fa87,0.0,-5.2418E-4
0x7e3688a7da99ddd6007356c1ba1677889c3b77cfdefc795e113cae51f1c1ccd4,2020-03-20 22:03:35 UTC,0xb7be0ee8ea1ed5f5d8ca7c317cc88d64c2b582f6,0.0,-2.515285357182E-4
0xa792ee2d70e0aa54cf72ad432315a46482475475a348c10aac502ab29f5e2593,2020-03-20 22:03:35 UTC,0x5ab9d116a53ef41063e3eae26a7ebe736720e9ba,0.0,-0.0232047904
0x5d7d08dc4117693ca782581600be286055f0f30ccf1d583de5b7018e5ae4c9e4,2020-03-20 22:03:35 UTC,0x99763d7e2291866a4c736c2b1a4db4afe404e406,0.0,-4.2128E-4
0x0ca72e7fce978f99c18ab3d7568e2737f0c10f2083252da00f8129c819805204,2020-03-20 22:03:35 UTC,0xfbaf3a7eb4ec2962bd1847687e56aaee855f5d00,0.0,-8.2396E-4
0x91faae8b29b4f17ffefe8edfd2c005ac28b72d10e0fa6e9baf820a57dd0e2d34,2020-03-20 22:03:28 UTC,0x798abda6cc246d0edba912092a2a3dbd3d11191b,0.0,0.0
0x35e2beff1fd4909e5df414938c18252f966495f4773d1c1f6ff7f78e97cf14be,2020-03-20 22:03:28 UTC,0x860bd2dba9cd475a61e6d1b45e16c365f6d78f66,0.0,0.0
0x248c1b722a78733519cffd066082a6280c5c589d557b7569b27a53289c71c1e1,2020-03-20 22:03:28 UTC,0x9ea109e5177fadbb6b6279ae50fdaff23569e8b4,0.0,0.0
0x438a1a64292bbd987c1827c3a05da593c1f7b0abe8678f5e8ed8a201489465d9,2020-03-20 22:03:28 UTC,0x7fab4cb3d917719284f9e715a9c6b6fa1fba217f,0.0,-9.60312E-4
0xe7f37de6a9d4437ec805e91ff3e3268cc9ccd9cfcc51602121154167849c911e,2020-03-20 22:03:28 UTC,0xd33c0674da79517322e601326cfee113e8e0629d,0.0,-0.0013367816648
0x4dd89b0c784d1fbd1eb74ffabb8424c19ed5a26fb74775932617358a8a62b941,2020-03-20 22:03:28 UTC,0xea674fdde714fd979de3edf0f56aa9716b898ec8,0.0,7.4537E-4
0x2e093eff10558e99e4a4e469d36a7561037564dee9d96f1a83977217a6e220f9,2020-03-20 22:03:28 UTC,0xe2ee4ce386e7cf7a7d08a28c97e5de4421a707fe,0.0,-2.84733E-4
0x2a63f77a8cb9da1c687cfd20d919a105890aa89bca55f5cafb799d6aee55a100,2020-03-20 22:03:28 UTC,0x56b18b735b93fd152e755ff498054eca4688569c,0.0,-2.79762E-4
0x26f715597cd8b0c1f0d152dfbe5cf64d102d4ff6279719e5b08b3f43e9165d38,2020-03-20 22:03:28 UTC,0xd3d555bb655acba9452bfc6d7cea8cc7b3628c55,0.0,-0.00287661835832541
0x4edca2cc3096b97c4bc7b16e073c285461180b0751a1ae4d7a8f743033b1115b,2020-03-20 22:03:28 UTC,0x2989b8c71e62dd3b842d19cbaaf35958f450d482,0.0,-9.91872E-4
0x13dbf6c0c5ec6622da8c5737e3ee88d1e75265daf46a3913cd83b67acd9dae42,2020-03-20 22:03:28 UTC,0xea674fdde714fd979de3edf0f56aa9716b898ec8,0.0,3.152112E-4
0xe7f37de6a9d4437ec805e91ff3e3268cc9ccd9cfcc51602121154167849c911e,2020-03-20 22:03:28 UTC,0xea674fdde714fd979de3edf0f56aa9716b898ec8,0.0,0.0013367816648
0x5e9037c20d5ac0add97f7bd7ab84b4528b391287a8756c27b06b4c4fed00928e,2020-03-20 22:03:28 UTC,0xdd87ae15f4be97e2739c9069ddef674f907d27a8,0.0,-4.0374E-4
0x005f64ff53fd0b6037ff8481ac8ab032a97f3f55be5ffeb988c87f539e9c3f80,2020-03-20 22:03:28 UTC,0x92fada475e42df867d52d0f37ba231c4355ce4aa,0.0,-1.68E-4
0x1c545c9dc187e0255f388ce3c590a3946d2bae6c3c38edec5a49f84bb73b651b,2020-03-20 22:03:28 UTC,0x6a5afcdf8385cebdfd75678f8731e077d2523d9c,0.0,-9.67086E-4
0xf6b1049934ed8827645ee04905fa08ff15fa1d7d1bae1b14b48290b735edb20a,2020-03-20 22:03:28 UTC,0xea674fdde714fd979de3edf0f56aa9716b898ec8,0.0,8.2394E-4
0x91faae8b29b4f17ffefe8edfd2c005ac28b72d10e0fa6e9baf820a57dd0e2d34,2020-03-20 22:03:28 UTC,0x0ee35154d0f323cd2168b12cef3d507352d1d93d,0.0,0.0
0x35e2beff1fd4909e5df414938c18252f966495f4773d1c1f6ff7f78e97cf14be,2020-03-20 22:03:28 UTC,0x4cb01bd05e4652cbb9f312ae604f4549d2bf2c99,0.0,0.0
0x972e78f0935ffe618307492d4a659fe81e256cfb8f6d607ebd3aeeb7b803f88c,2020-03-20 22:03:28 UTC,0xea674fdde714fd979de3edf0f56aa9716b898ec8,0.0,3.81627E-4
0x1160f17f76bb2129bf23153766b7c1ac24cebfc365c8f3792cfe8e422358fe65,2020-03-20 22:03:28 UTC,0x78d774ec303f30d925bad7d88e3a5eff2cf9d384,0.23702,0.0
0x91faae8b29b4f17ffefe8edfd2c005ac28b72d10e0fa6e9baf820a57dd0e2d34,2020-03-20 22:03:28 UTC,0x48d56bffa04b6e483aed753a48c871f02647aa68,0.0,0.0
0x2e093eff10558e99e4a4e469d36a7561037564dee9d96f1a83977217a6e220f9,2020-03-20 22:03:28 UTC,0xea674fdde714fd979de3edf0f56aa9716b898ec8,0.0,2.84733E-4
0xbc31171fe01208b6736f24911a23d9f9a424a0c6b1e2c729f2a417650f8ee7ca,2020-03-20 22:03:28 UTC,0x26c01be609e5580521fc643b1f6614b9a824b882,0.0,-3.7916E-4
0xa4fc05317d880b27bab294586ac47fafa526da44e368725384550693ad332251,2020-03-20 22:03:28 UTC,0x05a9cbe762b36632b3594da4f082340e0e5343e8,0.0,0.0
0x350ecf856e72862686a39c25f4883b84d907c8e7c91cc8c44a9f3a93349e6555,2020-03-20 22:03:28 UTC,0x16c8ea04eda7fffee6a21dccfa2850be61365573,0.0,-1.68E-4
0xea8680f41e777f5a565fdec4696a4025673a19c9c9e6ea8d2564e614e4d2dd45,2020-03-20 22:03:28 UTC,0x74722f39a94485aacd43c14be4c76f7fe914d764,0.0,-4.66301E-4
0x0491f2449db47e0f71b4dcd179305ee060500efee5cd0128ad51337420380222,2020-03-20 22:03:28 UTC,0xe8bfddae8f041e34b7688057cb761e7d08513fd6,0.0,-0.015226884
0x248c1b722a78733519cffd066082a6280c5c589d557b7569b27a53289c71c1e1,2020-03-20 22:03:28 UTC,0xc02aaa39b223fe8d0a0e5c4f27ead9083c756cc2,1.9043830465624034,0.0
0x91faae8b29b4f17ffefe8edfd2c005ac28b72d10e0fa6e9baf820a57dd0e2d34,2020-03-20 22:03:28 UTC,0x818e6fecd516ecc3849daf6845e3ec868087b755,0.0,0.0
0x91faae8b29b4f17ffefe8edfd2c005ac28b72d10e0fa6e9baf820a57dd0e2d34,2020-03-20 22:03:28 UTC,0x65bf64ff5f51272f729bdcd7acfb00677ced86cd,0.0,0.0
0x0f061d0a2713a927cdbbe29f348097c2f01b42a8e4fbe1f5677319d629a92e74,2020-03-20 22:03:28 UTC,0xea674fdde714fd979de3edf0f56aa9716b898ec8,0.0,"0,1575"
0x91faae8b29b4f17ffefe8edfd2c005ac28b72d10e0fa6e9baf820a57dd0e2d34,2020-03-20 22:03:28 UTC,0xa980f5420284fbf1502f226bd7369d4512176abe,0.0,0.0
0x462d7e3621f1cbd7ee609f9f0513cff55963243dcccab2771d7d45c108d79309,2020-03-20 22:03:28 UTC,0xea674fdde714fd979de3edf0f56aa9716b898ec8,0.0,0.00126
0x1160f17f76bb2129bf23153766b7c1ac24cebfc365c8f3792cfe8e422358fe65,2020-03-20 22:03:28 UTC,0xea674fdde714fd979de3edf0f56aa9716b898ec8,0.0,3.78E-4
0xa4fc05317d880b27bab294586ac47fafa526da44e368725384550693ad332251,2020-03-20 22:03:28 UTC,0x57ab1ec28d129707052df4df418d58a2d46d5f51,0.0,0.0
0x248c1b722a78733519cffd066082a6280c5c589d557b7569b27a53289c71c1e1,2020-03-20 22:03:28 UTC,0x2a1530c4c41db0b0b2bb646cb5eb1a67b7158667,-1.9043830465624034,0.0
0x91faae8b29b4f17ffefe8edfd2c005ac28b72d10e0fa6e9baf820a57dd0e2d34,2020-03-20 22:03:28 UTC,0x5ee7d26e49baf3c56218a7e57237da380c868589,0.0,0.0
0xa4fc05317d880b27bab294586ac47fafa526da44e368725384550693ad332251,2020-03-20 22:03:28 UTC,0x2a020c1ad728f1c12735bc4877ceeca4491a4a3d,0.0,0.0
0x4b2efcfaa6702a7e7e30f9202ded56f8ca79aa57e20b3efcaeaac65ffdc1efb5,2020-03-20 22:03:28 UTC,0xea674fdde714fd979de3edf0f56aa9716b898ec8,0.0,0.001299089896
0x462d7e3621f1cbd7ee609f9f0513cff55963243dcccab2771d7d45c108d79309,2020-03-20 22:03:28 UTC,0xc098b2a3aa256d2140208c3de6543aaef5cd3a94,0.39874,0.0
0x0491f2449db47e0f71b4dcd179305ee060500efee5cd0128ad51337420380222,2020-03-20 22:03:28 UTC,0x4962adcb07dce748c31531fa802b2c0634da1ea1,0.0,0.0
0x26f715597cd8b0c1f0d152dfbe5cf64d102d4ff6279719e5b08b3f43e9165d38,2020-03-20 22:03:28 UTC,0xea674fdde714fd979de3edf0f56aa9716b898ec8,0.0,0.00287661835832541
0xe98058a87350313b16c8e8c0da515dc2301bd4e9b4bc49b4f8d8a20e083e55a5,2020-03-20 22:03:28 UTC,0xea674fdde714fd979de3edf0f56aa9716b898ec8,0.0,5.85448090378535E-4
0x91faae8b29b4f17ffefe8edfd2c005ac28b72d10e0fa6e9baf820a57dd0e2d34,2020-03-20 22:03:28 UTC,0x1e158c0e93c30d24e918ef83d1e0be23595c3c0f,0.0,0.0
0x35e2beff1fd4909e5df414938c18252f966495f4773d1c1f6ff7f78e97cf14be,2020-03-20 22:03:28 UTC,0xf236f3eda58287664526ad5c99712d3c1040c759,0.0,0.0
0x9738ecb17acb56e5f1139ec04378d147c64d2b4e1e07eb34533b31a369ca2dc2,2020-03-20 22:03:28 UTC,0xea674fdde714fd979de3edf0f56aa9716b898ec8,0.0,0.00246015
0x574653cea6d0979b2fa9bc47e77b5642404d2d57834d3b5483b7da07ecde8081,2020-03-20 22:03:28 UTC,0xea674fdde714fd979de3edf0f56aa9716b898ec8,0.0,9.6012E-4
0x91faae8b29b4f17ffefe8edfd2c005ac28b72d10e0fa6e9baf820a57dd0e2d34,2020-03-20 22:03:28 UTC,0x2e642b8d59b45a1d8c5aef716a84ff44ea665914,-0.06692765255682663,0.0
0xcd346aa20bd1ba0b0d3048f6b05c7eecaf2eef406e8c793def3090c5a66c61b5,2020-03-20 22:03:28 UTC,0x6b175474e89094c44da98b954eedeac495271d0f,0.0,0.0
0x91faae8b29b4f17ffefe8edfd2c005ac28b72d10e0fa6e9baf820a57dd0e2d34,2020-03-20 22:03:28 UTC,0x611de65b2427307a94d1ab158d08c63d37f06009,0.0,0.0
0x1160f17f76bb2129bf23153766b7c1ac24cebfc365c8f3792cfe8e422358fe65,2020-03-20 22:03:28 UTC,0x3d25e4490ec931204feddcdc5ecf19e9ad230c8e,-0.23702,-3.78E-4
0xa5a5b8c2670055d7ad51d9cb8e2d67d362ab0245fadff9c6d80d59a3db24f14b,2020-03-20 22:03:28 UTC,0x2e05a304d3040f1399c8c20d2a9f659ae7521058,0.0,-1.39105067271577E-4
0x35e2beff1fd4909e5df414938c18252f966495f4773d1c1f6ff7f78e97cf14be,2020-03-20 22:03:28 UTC,0x0ff1efb8aa061808550cf245836f37475a4317fd,0.0,-0.001815588
0xbc2ab6b2d9adf87cc9d4372bd492d62776f7f4ff4042bc0734e294b8f3e891c2,2020-03-20 22:03:28 UTC,0xea674fdde714fd979de3edf0f56aa9716b898ec8,0.0,1.31733E-4
0x91faae8b29b4f17ffefe8edfd2c005ac28b72d10e0fa6e9baf820a57dd0e2d34,2020-03-20 22:03:28 UTC,0xfb80bfa19cae9e00f28b0f7e1023109deeb10483,0.0,0.0
0x492f306b877aef36a2273842c5b74648baceafa637c7df2b3512e48b427c383b,2020-03-20 22:03:28 UTC,0xae727ddc620ce211ebe224c6c1bc54559e32d78d,0.0,-2.7857E-4
0xa4fc05317d880b27bab294586ac47fafa526da44e368725384550693ad332251,2020-03-20 22:03:28 UTC,0xb082ddfd74748b763f52f04558e5f814a56de67a,0.0,-0.002919756
0xc8f54898119466e3049f12be70bfc5896d6c3283a989b48b90b5c57ff9f20edc,2020-03-20 22:03:28 UTC,0x007f6a9ab24e52cd7a311002c20ea614a3862a6c,-6,-5.8158E-4
0x30d57fdbe0a9581e071cf8d71715e317d1cb8b769f0358fc2f79fdd68f52686c,2020-03-20 22:03:28 UTC,0xdac17f958d2ee523a2206206994597c13d831ec7,0.0,0.0
0x5454fb43298e47bb293157d1d8376eba09d1ce1f2fbc37c6ff053828c5e32a78,2020-03-20 22:03:28 UTC,0xea674fdde714fd979de3edf0f56aa9716b898ec8,0.0,2.1194E-5
0x46ea4e271e23b36922a1b5d15f7b534ea5757d188fdf9ae0014422b89b51b5a0,2020-03-20 22:03:28 UTC,0x984e0ce55cafaf4fdd3117f2fc6b4c1159280cf8,0.0,-1.1445E-4
0x91faae8b29b4f17ffefe8edfd2c005ac28b72d10e0fa6e9baf820a57dd0e2d34,2020-03-20 22:03:28 UTC,0xea674fdde714fd979de3edf0f56aa9716b898ec8,0.0,0.022460088
0x231871074d19e9857ba9f94b60adbcb7288556a8542aa198ac1c113f0e6a2983,2020-03-20 22:03:28 UTC,0x90be6aaa00dcb1b25f276e74f079c67ad955ad58,0.0,-2.1E-5
0xd5b79c2780bdcc9bd0f5ac19dc4f194be4253d4170c5a0eb9da9a408aded8180,2020-03-20 22:03:28 UTC,0xa836ecab8e22c8438e24286c0fcdb45f675b39ad,0.0,-0.0012717144
0x5e9037c20d5ac0add97f7bd7ab84b4528b391287a8756c27b06b4c4fed00928e,2020-03-20 22:03:28 UTC,0x7c6e28b33fa22291f5e5fafc48555b922173ee8b,0.0,0.0
0x1c545c9dc187e0255f388ce3c590a3946d2bae6c3c38edec5a49f84bb73b651b,2020-03-20 22:03:28 UTC,0xea674fdde714fd979de3edf0f56aa9716b898ec8,0.0,9.67086E-4
0xbfdd37f2c5945e871410a95735b846bc175f8a507384941a4f9c9d6a8fee1854,2020-03-20 22:03:28 UTC,0xa7a7899d944fe658c4b0a1803bab2f490bd3849e,0.0,-9.3864E-4
0x213b23983a567d006902dd518fd2e3281072b8f49a4adc9ecdf91f6e6f66727c,2020-03-20 22:03:28 UTC,0x140c251fd91f6523401647b9bb2dabad029523e3,0.0,-2.1E-5
0x62b28cda86b513fda5313d09cc509d4c6878606cbb4396202213a2b58c7b5cb2,2020-03-20 22:03:28 UTC,0xea674fdde714fd979de3edf0f56aa9716b898ec8,0.0,0.00139575
0x462d7e3621f1cbd7ee609f9f0513cff55963243dcccab2771d7d45c108d79309,2020-03-20 22:03:28 UTC,0xf8b14f956515b5b8bf1e5f2ef2d29c08e23f71a6,-0.39874,-0.00126
0xbc31171fe01208b6736f24911a23d9f9a424a0c6b1e2c729f2a417650f8ee7ca,2020-03-20 22:03:28 UTC,0xea674fdde714fd979de3edf0f56aa9716b898ec8,0.0,3.7916E-4
0x0f061d0a2713a927cdbbe29f348097c2f01b42a8e4fbe1f5677319d629a92e74,2020-03-20 22:03:28 UTC,0xdcf81c4bdb34829f879ddd4fcaa8086f68eada58,0.0,"-0,1575"
