// VERIFICADO
// con cada compra, mantiene el valor promedio de compra y el saldo.
// con cada venta, se limita a solo tener en cuenta el saldo actual y calcula la direfencia como:
// DIFF = cant_lim_vendida * (precio_venta - precio_prom_compra)
// El resultado es la suma de las diferencias obtenidas
// 29' 
db.getCollection('ctacte').mapReduce(
  function(){ emit(this.address, {hash: this.hash, ts: this.ts, ethers: this.ethers, price: this.price}); },
  function(k,vs){ 
         balance_e = 0;
         buy_avg = 0;
         diff = 0;
         acc_diff = 0;
         last_ts = 0;
         ts_diff = -1;
         txs = [];
      
         //asegura que se calcula en orden cronologico
         vs2 = vs.sort(function(a, b){return a.ts - b.ts});
      
         for (i in vs2) {             
             v = vs2[i]; //tx
             
             //controlo que vaya en orden
             ts_diff = (ts_diff==-1)? 0 : (v.ts - last_ts);
             last_ts = v.ts;
             
             if (ts_diff < 0) throw "Fallo el orden ???";

             
             //si compra, puede comprar todo lo que quiera
             //si vende, controlo que no pueda vender mas de lo que tiene
             
             if(v.ethers < 0) {
                 //vende. Controlo que no venda mas de lo que tiene
                 e = Math.max(-balance_e, v.ethers);
                 //si e > 0 es porque alguna vez ya compro y por lo tanto tiene buy_avg
                 diff = -1 * e * (v.price - buy_avg)
                 acc_diff += diff;
             }else{
                 //compra. Toma todo.
                 e = v.ethers;
                 //calcula el nuevo promedio de compra
                 buy_avg = (balance_e * buy_avg + e * v.price) / (balance_e + e);
             }
             
             balance_e += e;
             
             txs.push( 
                {
                 hash: v.hash,   
                 ethers: v.ethers,
                 e: e,
                 uss: e * v.price,
                 price: v.price,
                 balance_e : balance_e,
                 buy_avg: buy_avg,
                 diff: diff,
                 ts: v.ts,    
                 date: new Date(v.ts * 1000),    
                 last_tx_in_hours: ts_diff / 3600,
                 last_tx_in_sec: ts_diff,
                 });
             }
             
             
         return { 
             "balance_e"  : balance_e,
             "acc_diff": acc_diff,
             "buy_avg": buy_avg,
             "vs_count": vs.length,
             "vs2_count": vs2.length,
             "sum_e_in"   : txs.map((t) => t.e).filter((e) => e>0).reduce((p,c) => p+c,0),
             "sum_e_out"  : txs.map((t) => t.e).filter((e) => e<0).reduce((p,c) => p+c,0),
             "count_in"   : txs.map((t) => t.e).filter((e) => e>0).reduce((p,c) => p+1,0),
             "count_out"  : txs.map((t) => t.e).filter((e) => e<0).reduce((p,c) => p+1,0),
             "sum_uss_in" : txs.map((t) => t.uss).filter((e) => e>0).reduce((p,c) => p+c,0),
             "sum_uss_out": txs.map((t) => t.uss).filter((e) => e<0).reduce((p,c) => p+c,0),
             "txs": txs,
             //score es el balance en uss sobre el total de uss invertidos
             //"score": balance_uss / txs.map((t) => t.uss).filter((e) => e>0).reduce((p,c) => p+c,0)
             score: acc_diff,
             };
         //return balance_uss;
      },
  {
    query: {
           address: { $in : ['0x0000000000333f28d3a20605c702f66c3143cccf']}
    },
    out: "scoring_m33"
  }
);
